C:\Users\Rklplol\Desktop\Workspace\Ed\backend\src\main\java\com\ub\backend\base\controller\BaseApiController.java
C:\Users\Rklplol\Desktop\Workspace\Ed\backend\src\main\java\com\ub\backend\base\service\PictureApiService.java
C:\Users\Rklplol\Desktop\Workspace\Ed\backend\src\main\java\com\ub\backend\base\utils\LangUtils.java
C:\Users\Rklplol\Desktop\Workspace\Ed\backend\src\main\java\com\ub\backend\base\utils\RequestLangUtils.java
C:\Users\Rklplol\Desktop\Workspace\Ed\backend\src\main\java\com\ub\backend\base\controller\BaseExceptionHandler.java
C:\Users\Rklplol\Desktop\Workspace\Ed\backend\src\main\java\com\ub\backend\base\api\response\FileResponse.java
C:\Users\Rklplol\Desktop\Workspace\Ed\backend\src\main\java\com\ub\backend\base\api\response\AuthResponse.java
C:\Users\Rklplol\Desktop\Workspace\Ed\backend\src\main\java\com\ub\backend\base\routes\BaseApiRoutes.java
